    1  logout
    2  cd
    3  logout
    4  history
    5  call
    6  chkdsk
    7  logout
    8  clear
    9  git clone https://bpalms14@bitbucket.org/bpalms14/cosc362.git
   10  git clone git@bitbucket.org:bpalms14/cosc362.git
   11  l
   12  ls
   13  cd cosc362/
   14  "this is a readme" > README
   15  la
   16  ls
   17  nano
   18  git add READme
   19  git commit -m "Adding file to repo."
   20  git config --global user.name "Brady Palmer"
   21  git push 
   22  cd /path/to/your/repo
   23  git push -u origin master
   24  git status
   25  cd /READme
   26  cd READme
   27  ls
   28  git config --global user.email "bpalms14@gmail.com"
   29  git status
   30  get add READ
   31  git add README
   32  git commit README
   33  git status 
   34  ls
   35  git push
   36  ls
   37  cd README
   38  logout
   39  ls
   40  cosc~
   41  cosc362
   42  cd cosc362/
   43  cd
   44  git clone https://jrchrispe@bitbucket.org/jchrispe/cs~classchrispell.git
   45  git clone https://jchrispe@bitbucket.org/jchrispe/cs~classchrispell.git
   46  git clone https://jchrispe@bitbucket.org/jchrispe/cs362classchrispell.git
   47  ls
   48  cd cs362classchrispell/
   49  ls
   50  cd ClassNotes
   51  open
   52  open ClassNotes
   53  cd
   54  cd cs362classchrispell/
   55  ls
   56  cd
   57  cd cosc362/
   58  cat assignment1.txt
   59  nano/path/to/file
   60  nano/path/to.assignment1
   61  clear
   62  mkdir assignment1
   63  ls
   64  cd assignment1
   65  clear
   66  cd
   67  ls
   68  cs362classchrispell/
   69  cd cs362classchrispell/
   70  git pull
   71  cd
   72  cd cosc362
   73  mkdir Class09072018
   74  cd Class09072018/
   75  history logfile.txt 
   76  history > logfile.txt 
